Covid19
…
# assigning new column name
colnames(MaskUse)[1] <- "fips"

MaskUse

## # A tibble: 3,142 x 6
##    fips  NEVER RARELY SOMETIMES FREQUENTLY ALWAYS
##    <chr> <dbl>  <dbl>     <dbl>      <dbl>  <dbl>
##  1 01001 0.053  0.074     0.134      0.295  0.444
##  2 01003 0.083  0.059     0.098      0.323  0.436
##  3 01005 0.067  0.121     0.12       0.201  0.491
##  4 01007 0.02   0.034     0.096      0.278  0.572
##  5 01009 0.053  0.114     0.18       0.194  0.459
##  6 01011 0.031  0.04      0.144      0.286  0.5  
##  7 01013 0.102  0.053     0.257      0.137  0.451
##  8 01015 0.152  0.108     0.13       0.167  0.442
##  9 01017 0.117  0.037     0.15       0.136  0.56 
## 10 01019 0.135  0.027     0.161      0.158  0.52 
## #  with 3,132 more rows
…
